{
    "fluentMethods": true,
    "relationships": [],
    "fields": [
        {
            "fieldName": "cdProduto",
            "fieldType": "Integer"
        },
        {
            "fieldName": "nomeproduto",
            "fieldType": "String"
        }
    ],
    "changelogDate": "20171028163345",
    "entityTableName": "produto",
    "dto": "no",
    "pagination": "pagination",
    "service": "no",
    "jpaMetamodelFiltering": false
}